%YAML 1.1
%TAG !u! tag:unity3d.com,2011:
--- !u!1045 &1
EditorBuildSettings:
  m_ObjectHideFlags: 0
  serializedVersion: 2
  m_Scenes:
  - enabled: 1
    path: Assets/Framework/Splash/Splash.unity
    guid: ee174d1e6d6ef4744a0e06f201e15583
  - enabled: 1
    path: Assets/Framework/Main Menu/MainMenu.unity
    guid: eb2b678503ae84040bfc2c006eab2801
  - enabled: 1
    path: Assets/Framework/Loading/LoadingScreen.unity
    guid: 0bfd882b236fb454fb9b2fc018f28647
  - enabled: 1
    path: Assets/Framework/Main Menu/SelectionMenu.unity
    guid: bba6bebdaaa22ae46986ca0eb04ed9c0
  - enabled: 1
    path: Assets/Framework/Main Menu/Lobby.unity
    guid: 2ae1b41fd791c6c44beaf781d644d54b
  - enabled: 1
    path: Assets/Assignment/Wait Room.unity
    guid: 3f69c02343035224f9fe10516b8c8d16
  - enabled: 1
    path: Assets/Assignment/Game Room.unity
    guid: dd76458c497d9f840811aaedd44cf18a
  - enabled: 1
    path: Assets/Assignment/WarlocksGame.unity
    guid: 4819c0ca8743a4174bdb25b5a2854952
  m_configObjects: {}
